{
	"image": "cleanlang/devcontainer:latest",
	"customizations": {"vscode": {"extensions": [
				"TOPSoftware.clean-vs-code",
				"eamodio.gitlens"
			]}},
	"onCreateCommand": ".devcontainer/setup.sh; /onStartup.sh"
}
